…
Summarise all subject/activity\_labels by mean function
-------------------------------------------------------

``` r
final_data <- subdata %>%
  group_by(subject, activity_labels) %>%
  summarise_all (funs(mean))

print (final_data, n=5, n_extra = 5)
```

    ## # A tibble: 180 x 81
    ## # Groups:   subject [?]
    ##   subject    activity_labels `tBodyAcc-mean()-X` `tBodyAcc-mean()-Y`
    ##    <fctr>             <fctr>               <dbl>               <dbl>
    ## 1       1             LAYING           0.2215982        -0.040513953
    ## 2       1            SITTING           0.2612376        -0.001308288
    ## 3       1           STANDING           0.2789176        -0.016137590
    ## 4       1            WALKING           0.2773308        -0.017383819
    ## 5       1 WALKING_DOWNSTAIRS           0.2891883        -0.009918505
    ## # ... with 175 more rows, and 77 more variables:
    ## #   `tBodyAcc-mean()-Z` <dbl>, `tGravityAcc-mean()-X` <dbl>,
    ## #   `tGravityAcc-mean()-Y` <dbl>, `tGravityAcc-mean()-Z` <dbl>,
    ## #   `tBodyAccJerk-mean()-X` <dbl>, ...
…
